461635 976255
78650 281166
538004 515830
185668 5485
247983 199185
524220 798702
220204 257719
433102 437480
675899 960204
689966 132935
617870 464299
44040 103477
574713 898191
687828 459683
362211 894841
615861 415112
406156 663635
596356 331237
74246 181515
482268 1450
982072 19109
32959 279233
397187 282411
611349 180900
162506 356754
430567 54675
77021 768366
578831 908579
784942 883088
619990 489276
413561 361287
190722 794843
456255 978078
705660 798319
238296 845697
805687 626981
392319 689657
847265 136218
66048 460120
54502 901908
929973 112494
244430 228663
662560 361518
571726 902518
498882 649537
943659 172370
704325 517337
492655 291625
386824 559208
642294 891603
577392 709634
990408 800107
17346 365600
950068 457858
609945 293310
891372 825219
274585 128079
909051 845103
674821 204873
44946 310687
540069 86269
20104 420434
730983 67823
647809 4894
636546 846639
649710 306161
147987 199842
17509 84796
239867 551600
168601 954309
567282 960208
653960 243464
447504 715849
94724 223732
863003 956282
97634 701058
203006 146485
10470 282795
918142 19576
724995 297434
838820 902076
745272 201528
169220 2680
234057 224580
348950 447838
376043 268342
708257 455886
138840 819988
808668 648585
271417 824782
996131 817504
375444 999612
939872 573996
501210 795537
586751 354015
875630 775516
838697 348108
481758 259371
894179 917573
103848 501455
837444 147856
703040 975550
713824 961436
487087 801993
824619 11081
721816 110884
105174 837613
243982 475719
735621 32848
954451 297099
979675 992886
669127 907209
369806 663461
845670 153793
788822 972179
849831 244861
301318 412400
516918 742170
645810 111454
227894 593026
759752 937769
68884 143748
483340 380744
48041 59277
720501 799806
573192 858874
228510 461495
654137 342016
97968 591508
196974 751959
19199 765542
49020 420720
735228 978576
214235 289625
49454 645385
67045 967315
610686 935941
111399 533154
718532 960644
246258 323448
847765 280503
154260 2603
526660 991446
132918 596754
448377 966050
2358 918262
549300 417582
85353 189166
446782 521360
179078 387814
323147 288351
849081 325874
132148 23190
645906 746796
210319 218743
908283 544130
117014 480896
559582 533373
729441 621311
499326 652033
542271 619888
285132 968045
81538 763502
328328 753708
531648 925425
66097 875586
352834 127534
374338 401762
974510 830293
394762 744403
933711 290578
234948 410362
559882 527617
829841 942929
25056 16402
751368 365902
981070 717471
208666 647768
73373 391773
702076 11935
71816 980690
638950 861048
840194 596991
86502 252446
541776 828860
705372 610599
946278 732314
66833 617073
800120 626390
446286 92575
427008 187475
154869 526298
3973 242968
415704 23923
203295 925664
624497 431345
489981 515202
682834 156078
280153 445609
110906 604200
531725 904603
666904 814220
32271 291396
