838340 671135 525
999675 546670 525
158345 171748 370
190367 41711 383
153785 241079 443
456071 555486 470
72061 625118 470
46790 463713 449
649537 424536 509
603630 34103 470
660940 162428 509
351245 32490 443
968235 278824 525
62678 826982 509
498314 431869 444
276657 786386 509
99661 929270 525
877179 851052 432
302618 849332 525
359011 124631 443
421330 967238 525
797011 759700 468
64635 833386 509
686552 764180 504
557551 427587 470
241967 455744 449
252033 250381 319
562755 35713 470
490490 928275 525
719628 197538 509
988000 168983 525
271988 160142 443
290536 879485 525
13240 68817 340
862866 367108 525
680204 979642 525
864664 829568 525
259045 847593 525
711263 112166 509
548921 187232 470
836933 240017 509
433652 677187 509
398748 551543 470
962705 568086 525
192464 954165 525
703045 215389 509
537247 611552 452
375714 718203 509
119211 183501 383
532066 594342 452
911020 647068 525
797057 974450 525
492339 70447 449
20834 821189 509
319654 454630 449
436400 416056 418
585283 910954 525
310895 722602 509
958387 576917 525
944809 224287 525
795041 556096 509
800643 651150 504
914133 577074 525
848159 342858 525
922233 424994 525
11670 952778 525
3853 833651 509
693193 191689 509
842660 340281 525
792538 515575 509
726013 166703 509
481020 510789 426
745725 381968 509
975455 76304 525
681108 377283 509
463744 547392 470
371949 823192 509
127802 609121 470
295812 623851 470
551951 552037 209
267492 163172 443
790229 918858 525
791399 12973 509
456096 307363 449
267480 605713 470
211593 151489 383
948618 872739 507
360926 971073 525
932585 387609 525
205205 353151 443
323877 129696 443
246896 157265 443
400522 824567 509
670141 550830 509
532794 579118 452
606912 236076 470
656713 395565 509
342288 641257 509
149129 515239 470
607652 882071 525
962915 692100 525
979869 330089 525
638764 597695 509
198316 800812 509
348016 976454 525
211229 813630 509
844900 405893 525
679562 521013 509
557508 82251 470
370354 903326 525
92044 238929 443
921104 247138 525
614963 266325 470
846842 25941 525
985473 10917 525
26715 288967 443
531859 793496 509
221495 799476 509
258252 202746 443
181455 136995 383
516297 925785 525
910114 396388 525
507280 943915 525
322011 266837 407
623234 349551 470
943954 360093 525
141130 98961 354
527534 859867 525
667645 885833 525
984117 518566 525
829321 608823 509
945138 15173 525
552644 103354 470
340748 480555 449
496453 32351 449
241515 835885 509
292526 384817 441
941905 897190 507
714177 254280 509
36684 75868 340
700871 413458 509
92642 475048 449
385142 847878 525
578733 157798 470
383781 34678 443
108892 214082 383
330040 197875 443
946555 948824 383
381144 642945 509
498910 857619 525
841987 889810 445
298217 901116 525
806491 273561 509
618923 218339 470
367532 778542 509
789742 644970 504
127727 845122 525
238456 884423 525
935256 233294 525
570847 777614 509
258595 57361 443
754455 450493 509
795289 773889 437
509525 178614 449
183748 281537 443
814717 398833 509
542997 71098 470
553735 950370 525
594658 739658 509
553598 650271 509
109279 51906 354
784651 731512 468
624572 279938 470
189487 448518 449
675146 91459 509
41970 781955 509
936978 335997 525
217444 958979 525
633756 452468 509
281926 855856 525
987073 350749 525
565555 900063 525
157279 255275 443
232628 157965 443
40118 700469 509
99995 972148 525
181329 649 383
673912 154154 509
801804 336939 509
668522 114489 509
860826 763174 525
974975 797342 525
957602 528480 525
349361 292272 441
431825 298763 449
582137 606227 434
329582 860543 525
218078 436728 449
789184 279947 509
262790 206163 443
622696 200491 470
344178 866882 525
246564 222162 443
697413 164072 509
278112 222684 443
44254 792326 509
474381 315623 449
591222 672617 509
134601 638856 509
90140 176228 383
