711688 985026
61181 871887
338557 469858
88235 120945
177894 908441
573298 839855
907734 610549
302466 701505
690957 930400
401326 667186
858173 601712
400172 523740
149637 659909
829130 802669
538414 25143
375725 108433
822106 446770
172687 162991
948021 47407
17977 334254
735023 155662
349900 382223
870493 779085
616646 322893
410509 617887
555235 552917
959710 770983
277036 746929
396561 339299
388233 985632
257771 262851
712591 39691
263664 431580
859969 783058
968857 951846
283882 10589
525435 820481
565684 612503
870504 758877
556860 494182
139152 412500
345339 970389
750310 239950
176560 888335
466250 657035
781667 346069
285874 186630
496847 150679
560318 320736
804440 95663
881514 464217
476662 804712
599216 605265
143287 776805
237716 117205
938342 186332
119447 547937
343087 400381
112439 476599
672113 743886
587453 120843
322562 979598
455628 339193
402074 342204
765691 875879
610739 378953
442969 406562
172859 409723
310177 505868
501363 41454
165598 82454
628344 447911
91393 470331
503494 37871
815598 123074
833451 954559
491239 400068
62737 977843
24730 680623
597993 486227
814960 813619
664807 902064
356338 124480
978081 944479
988231 823318
889179 547492
67464 896942
207283 784504
325676 258388
136842 163437
393326 616196
882702 901856
187072 811522
314534 434828
534849 396155
787726 871457
262061 129092
615609 390224
24664 91059
670341 565890
369028 700397
780671 589958
71927 588860
244373 26815
816925 149171
927860 601463
759509 754053
831450 739989
333552 97826
997151 379543
343265 69437
756991 11988
942799 19142
889644 750144
895942 740353
961804 961219
624937 809806
863686 277214
400937 221004
493049 816237
423029 481763
864507 641793
118567 898578
919584 578061
322634 240567
759667 605864
285673 519856
103738 581386
622056 529546
139433 789846
68595 74781
946678 28856
379815 88618
407220 483823
355069 163390
273351 479010
118188 944443
794543 779157
667735 200681
496856 442232
850880 691995
811196 847725
188900 998702
465518 969378
305337 419273
952712 192546
284998 499496
680301 230056
158497 882466
664370 980373
416161 774437
3260 922525
584868 240120
223096 920611
186030 892601
354941 153972
534457 474018
830724 926186
346170 785536
865115 549177
684279 990174
698719 984010
243736 955822
278359 124496
589840 797325
96081 533989
77768 618711
855991 171444
419996 875833
261561 155822
694049 290611
372161 606570
925518 40093
17393 2325
531320 978337
360408 135807
756365 234879
95799 387245
828898 592298
323419 782438
430465 309520
660611 736075
610907 83261
660565 996431
162840 541282
483214 448318
524377 148281
439363 628639
769331 702109
120778 411476
264021 298104
799197 384701
548577 596446
465585 616070
257188 900330
174742 992610
798840 239861
883584 316773
234191 764780
783316 963239
436668 374854
707288 586544
494112 797975
607615 330019
639325 358349
920341 415409
795950 842963
310501 446487
679045 166870
733173 186216
423097 419185
220167 365111
665475 659159
311674 50974
15319 656389
28493 90094
267401 206114
951622 914636
790417 989534
569484 834002
198872 234019
135511 824795
722195 455138
410480 976120
217615 296386
341497 259950
681518 433555
479001 788220
484671 809145
579810 644329
1268 486240
104058 501203
262575 504834
83167 780986
125413 991893
504550 240229
480117 963872
403887 426373
718123 863681
66615 734948
514331 953539
917290 278262
307459 146781
436912 792171
604100 934026
650838 940888
229727 684513
759207 271190
671844 350767
912678 818369
690621 664732
376777 536456
978985 2896
555387 308654
486702 441864
857785 948554
479514 953224
580895 366692
560894 400482
67273 82760
810557 400340
629496 641752
701730 447531
443889 219782
999352 882937
695409 61138
923143 828325
