251157 497922
806223 725993
940791 728032
616892 148870
401593 646367
633874 80018
965923 422917
993678 229949
337975 107106
980101 706328
988040 11295
184511 710518
779614 968887
256274 764135
563894 610725
660350 243419
389038 120006
822290 428942
359039 641021
787264 656012
496569 843767
348285 677189
414560 840353
218680 519225
975002 477599
925846 355630
7925 3849
5616 7518
9277 6798
7583 3645
2823 7189
4950 102
3533 9113
482 957
534 138
791 20
865 665
222 971
892 949
597 455
316 284
632 36
799 361
794 252
183 532
878 723
567 393
104 122
328 277
728 428
102 653
223 990
677 320
485 179
440 588
700 284
953 105
630918 97639
545514 153807
409456 473322
996353 436146
61733 696169
389737 351800
844494 404043
195543 391766
232674 199861
233901 290522
147172 871249
728823 161369
327288 93496
377237 644636
985999 956425
150233 413751
176368 609890
224011 353906
618594 557953
649956 479016
89813 648404
116380 184912
862494 602140
428950 750165
92364 6017
142410 90680
503040 53131
113198 650175
192116 956116
610653 965874
892236 881860
23970 887230
560704 460161
132699 645224
742501 404213
370511 970747
754091 547371
505105 242822
369207 648543
681563 210868
352837 647614
832105 179969
885915 662704
42121 674065
650778 912619
580517 499206
106217 920745
951832 817517
271008 810700
508235 312198
156086 239445
9510 310984
750507 72174
353001 57072
899011 5983
495242 8930
776648 42572
2755 748426
16472 171006
2821 509960
9573 466309
1025 359524
49681 228115
805672 659149
9265 626790
32280 941681
20597 101091
468355 978752
19108 763760
32732 225600
50705 889054
28753 205512
87527 729081
24353 585138
7429 859886
62809 661661
1393 493599
8785 733761
3002 709568
301518 360582
13087 355226
357 826324
1711 446568
5570 222881
6946 258435
16015 438851
67713 936455
30166 532
30681 385276
92070 148954
49031 391881
13301 756740
18734 428110
59969 689561
3410 3094
564824 9190
39324 4197
656697 98600
859794 74135
58276 814335
10791 522294
49148 937298
36519 159887
85091 600374
53740 461428
36395 499757
37886 589107
609929 46584
284643 71994
823523 96455
4828 862
951 3094
7505 7217
3501 5702
8911 5989
4952 830
7648 42572
275 748426
472 1710
2821 5960
953 4309
125 3524
4968 2115
8056 6549
92 6790
280 681
207 1091
455 8752
108 7760
322 5600
505 854
287 2512
875 9081
2435 5138
749 8586
809 1661
139 3599
878 3761
300 768
308 3582
130 3226
37 24
111 568
557 881
69 235
165 431
673 6455
306 52
306 276
920 1954
49 81
101 7740
187 428
599 9561
310 394
4824 910
394 497
657 986
854 7435
582 4335
11 54
48 98
319 187
85 74
540 428
36 49
37 57
69 46
284 794
83 965
482 862
