736594 331064
678271 534360
276358 995812
210754 340846
88271 350104
946799 956742
119881 248152
114235 70382
841559 782317
885547 235289
421760 891949
79911 678575
177922 788840
171320 958023
246797 866687
960333 41112
806867 959714
419318 376402
89524 970275
852862 42417
319617 583134
448281 636482
999549 475330
80445 942698
241095 571450
913137 748707
696940 509477
582973 679487
879778 25910
124654 539374
411457 455943
93327 121918
651171 115247
714073 406564
59377 533933
147112 943924
793154 935592
599371 374805
97008 273642
365657 403365
612514 641483
6908 418281
63822 760456
411610 683049
209952 622656
801083 966228
651976 688700
131858 512072
35975 275975
513993 351516
176164 636
768752 549233
761366 584248
977171 508635
93647 798629
576961 317312
416558 586127
807763 216759
193559 500235
511085 764664
817541 683978
605057 111045
611181 496628
574543 926504
898184 420133
182001 938902
783250 204060
12686 657106
40496 75853
391900 860755
487987 50091
672364 321887
689885 317948
477686 662248
311049 242286
562751 915133
765963 733537
344102 363815
832022 287456
909009 114309
917596 940855
322745 109602
516013 705942
67378 241036
912477 669063
969381 641238
139544 931417
878337 140197
576268 532813
669118 741046
422351 491178
713251 717221
206208 332195
3363 2090
204645 271661
57338 567555
63372 264533
6609 736670
893134 279237
922411 883777
847512 410135
326225 331353
224353 392629
263326 658667
318262 773339
167160 311771
520075 958918
405364 613120
904954 823646
402476 846076
311188 503546
409676 693395
866384 723542
668600 835007
201510 894153
921175 790032
61001 771222
49367 826082
336563 123103
593431 236543
799248 977660
297098 243728
234090 660684
175188 952750
360563 530260
836750 516013
139815 487480
746927 644690
994201 11381
537962 698598
547794 376355
271070 201189
434865 288562
33447 811719
610333 670482
517179 380841
855719 273728
576354 227417
67270 521681
3312 897524
389413 972313
76447 477214
947687 196588
448723 919794
515158 142321
225649 578673
996917 344930
720774 804392
132090 421106
956833 580367
862382 209901
619211 456482
864744 865024
294144 222572
808204 994053
448227 936067
637985 868303
395372 781501
825256 171052
694867 415037
915169 277673
978602 353046
60606 69370
403735 117170
407614 531854
365275 740124
656850 670559
428773 630430
831086 218914
408632 215320
12619 537312
612496 239097
598966 45777
910174 710851
92897 939204
784708 595
699097 778461
444138 962554
175624 732191
671500 961821
499082 341724
505594 12748
136867 116440
965049 129673
189985 470616
202357 127917
503286 153926
297183 97068
486768 71121
359217 552086
181204 227745
10869 100705
439330 646261
307300 578478
869769 808932
648936 324444
476706 128887
813621 530862
855866 983023
521929 51029
644832 340302
175669 152519
217346 510862
831659 352667
292676 917325
722862 47491
683431 371207
296761 515372
666013 569175
331270 68645
535139 74319
923875 314063
467323 900912
664642 477183
159613 950145
525737 29450
779997 592263
317997 263032
571170 912750
198196 942769
364686 409631
549700 62213
138474 570183
953694 72287
424965 615970
706087 678325
464545 171800
475612 147042
556950 56625
375246 743460
413916 515752
953714 609080
481041 828037
194633 756805
137249 119790
263489 863621
53823 598919
678244 612042
85764 659011
661740 109567
555397 871679
163997 916949
870534 43313
224320 73943
537138 714880
232662 967292
433971 239008
723386 822410
375990 809647
97342 621538
236634 468469
12490 702272
696345 667580
812890 167833
344745 382953
986607 777802
842081 624227
729462 152348
43196 565545
354282 738968
400493 839087
797431 10375
355498 209406
124873 659319
10221 625811
840121 502045
820626 616446
246346 733042
339903 540226
117374 204871
542598 554813
759146 836043
670768 250504
38063 958959
185953 766643
120647 771180
687003 62856
685382 538810
796585 696601
551944 636964
484102 389946
485630 745
828136 271798
766649 802792
628610 525833
700069 832398
771929 206567
576700 334334
704244 143367
132430 99364
940608 417888
691290 715801
293888 626992
720319 859963
993915 998364
664678 101956
444707 873390
596701 140702
653427 816393
469874 19710
